D:\Repo\site3.0\website3.0\LeisureInsure\App\Account\AccountController.js
D:\Repo\site3.0\website3.0\LeisureInsure\App\Account\AccountController.js.map
D:\Repo\site3.0\website3.0\LeisureInsure\App\Admin\AddUser\AddUserController.js
D:\Repo\site3.0\website3.0\LeisureInsure\App\Admin\AddUser\AddUserController.js.map
D:\Repo\site3.0\website3.0\LeisureInsure\App\Admin\app.js
D:\Repo\site3.0\website3.0\LeisureInsure\App\Admin\app.js.map
D:\Repo\site3.0\website3.0\LeisureInsure\App\Admin\Broker\BrokerController.js
D:\Repo\site3.0\website3.0\LeisureInsure\App\Admin\Broker\BrokerController.js.map
D:\Repo\site3.0\website3.0\LeisureInsure\App\Admin\Calculator\CalculatorController.js
D:\Repo\site3.0\website3.0\LeisureInsure\App\Admin\Calculator\CalculatorController.js.map
D:\Repo\site3.0\website3.0\LeisureInsure\App\Admin\FailedTAM\FailedTAMController.js
D:\Repo\site3.0\website3.0\LeisureInsure\App\Admin\FailedTAM\FailedTAMController.js.map
D:\Repo\site3.0\website3.0\LeisureInsure\App\Admin\Interfaces\IAddress.js
D:\Repo\site3.0\website3.0\LeisureInsure\App\Admin\Interfaces\IAddress.js.map
D:\Repo\site3.0\website3.0\LeisureInsure\App\Admin\Interfaces\IBroker.js
D:\Repo\site3.0\website3.0\LeisureInsure\App\Admin\Interfaces\IBroker.js.map
D:\Repo\site3.0\website3.0\LeisureInsure\App\Admin\Interfaces\IBrokerDetails.js
D:\Repo\site3.0\website3.0\LeisureInsure\App\Admin\Interfaces\IBrokerDetails.js.map
D:\Repo\site3.0\website3.0\LeisureInsure\App\Admin\Interfaces\IBrokerQuote.js
D:\Repo\site3.0\website3.0\LeisureInsure\App\Admin\Interfaces\IBrokerQuote.js.map
D:\Repo\site3.0\website3.0\LeisureInsure\App\Admin\Interfaces\ICover.js
D:\Repo\site3.0\website3.0\LeisureInsure\App\Admin\Interfaces\ICover.js.map
D:\Repo\site3.0\website3.0\LeisureInsure\App\Admin\Interfaces\ICoverSections.js
D:\Repo\site3.0\website3.0\LeisureInsure\App\Admin\Interfaces\ICoverSections.js.map
D:\Repo\site3.0\website3.0\LeisureInsure\App\Admin\Interfaces\IQuoteNote.js
D:\Repo\site3.0\website3.0\LeisureInsure\App\Admin\Interfaces\IQuoteNote.js.map
D:\Repo\site3.0\website3.0\LeisureInsure\App\Admin\Interfaces\IWebErrors.js
D:\Repo\site3.0\website3.0\LeisureInsure\App\Admin\Interfaces\IWebErrors.js.map
D:\Repo\site3.0\website3.0\LeisureInsure\App\Admin\Interfaces\ICustomer.js
D:\Repo\site3.0\website3.0\LeisureInsure\App\Admin\Interfaces\ICustomer.js.map
D:\Repo\site3.0\website3.0\LeisureInsure\App\Admin\Interfaces\IDocument.js
D:\Repo\site3.0\website3.0\LeisureInsure\App\Admin\Interfaces\IDocument.js.map
D:\Repo\site3.0\website3.0\LeisureInsure\App\Admin\Interfaces\ILandingPageDefinition.js
D:\Repo\site3.0\website3.0\LeisureInsure\App\Admin\Interfaces\ILandingPageDefinition.js.map
D:\Repo\site3.0\website3.0\LeisureInsure\App\Admin\Interfaces\IListItemSelected.js
D:\Repo\site3.0\website3.0\LeisureInsure\App\Admin\Interfaces\IListItemSelected.js.map
D:\Repo\site3.0\website3.0\LeisureInsure\App\Admin\Interfaces\INavigationData.js
D:\Repo\site3.0\website3.0\LeisureInsure\App\Admin\Interfaces\INavigationData.js.map
D:\Repo\site3.0\website3.0\LeisureInsure\App\Admin\Interfaces\IPolicy.js
D:\Repo\site3.0\website3.0\LeisureInsure\App\Admin\Interfaces\IPolicy.js.map
D:\Repo\site3.0\website3.0\LeisureInsure\App\Admin\Interfaces\IQuote.js
D:\Repo\site3.0\website3.0\LeisureInsure\App\Admin\Interfaces\IQuote.js.map
D:\Repo\site3.0\website3.0\LeisureInsure\App\Admin\Interfaces\IRenewalList.js
D:\Repo\site3.0\website3.0\LeisureInsure\App\Admin\Interfaces\IRenewalList.js.map
D:\Repo\site3.0\website3.0\LeisureInsure\App\Admin\Interfaces\IRenewalListItem.js
D:\Repo\site3.0\website3.0\LeisureInsure\App\Admin\Interfaces\IRenewalListItem.js.map
D:\Repo\site3.0\website3.0\LeisureInsure\App\Admin\LandingPages\LandingPageController.js
D:\Repo\site3.0\website3.0\LeisureInsure\App\Admin\LandingPages\LandingPageController.js.map
D:\Repo\site3.0\website3.0\LeisureInsure\App\Admin\Menu\MenuController.js
D:\Repo\site3.0\website3.0\LeisureInsure\App\Admin\Menu\MenuController.js.map
D:\Repo\site3.0\website3.0\LeisureInsure\App\Admin\RateChecker\RateCheckerController.js
D:\Repo\site3.0\website3.0\LeisureInsure\App\Admin\RateChecker\RateCheckerController.js.map
D:\Repo\site3.0\website3.0\LeisureInsure\App\Admin\Renewal\RenewalController.js
D:\Repo\site3.0\website3.0\LeisureInsure\App\Admin\Renewal\RenewalController.js.map
D:\Repo\site3.0\website3.0\LeisureInsure\App\Admin\Services\QuoteStorageService.js
D:\Repo\site3.0\website3.0\LeisureInsure\App\Admin\Services\QuoteStorageService.js.map
D:\Repo\site3.0\website3.0\LeisureInsure\App\Admin\Underwriter\Quotes\UnderwriterQuotesController.js
D:\Repo\site3.0\website3.0\LeisureInsure\App\Admin\Underwriter\Quotes\UnderwriterQuotesController.js.map
D:\Repo\site3.0\website3.0\LeisureInsure\App\Admin\Underwriter\UnderwriterController.js
D:\Repo\site3.0\website3.0\LeisureInsure\App\Admin\Underwriter\UnderwriterController.js.map
D:\Repo\site3.0\website3.0\LeisureInsure\App\Admin\WebError\WebErrorController.js
D:\Repo\site3.0\website3.0\LeisureInsure\App\Admin\WebError\WebErrorController.js.map
D:\Repo\site3.0\website3.0\LeisureInsure\App\App.js
D:\Repo\site3.0\website3.0\LeisureInsure\App\App.js.map
D:\Repo\site3.0\website3.0\LeisureInsure\App\BrokerPortal\BrokerPortalController.js
D:\Repo\site3.0\website3.0\LeisureInsure\App\BrokerPortal\BrokerPortalController.js.map
D:\Repo\site3.0\website3.0\LeisureInsure\App\Classes\LookupAddress.js
D:\Repo\site3.0\website3.0\LeisureInsure\App\Classes\LookupAddress.js.map
D:\Repo\site3.0\website3.0\LeisureInsure\App\Components\CallsToAction\CallsToActionController.js
D:\Repo\site3.0\website3.0\LeisureInsure\App\Components\CallsToAction\CallsToActionController.js.map
D:\Repo\site3.0\website3.0\LeisureInsure\App\Components\PolicyInformation\PolicyInformation.js
D:\Repo\site3.0\website3.0\LeisureInsure\App\Components\PolicyInformation\PolicyInformation.js.map
D:\Repo\site3.0\website3.0\LeisureInsure\App\Confirmation\ConfirmationController.js
D:\Repo\site3.0\website3.0\LeisureInsure\App\Confirmation\ConfirmationController.js.map
D:\Repo\site3.0\website3.0\LeisureInsure\App\controllers\LocaleController.js
D:\Repo\site3.0\website3.0\LeisureInsure\App\controllers\LocaleController.js.map
D:\Repo\site3.0\website3.0\LeisureInsure\App\controllers\MetadataController.js
D:\Repo\site3.0\website3.0\LeisureInsure\App\controllers\MetadataController.js.map
D:\Repo\site3.0\website3.0\LeisureInsure\App\controllers\StaticPageLoginController.js
D:\Repo\site3.0\website3.0\LeisureInsure\App\controllers\StaticPageLoginController.js.map
D:\Repo\site3.0\website3.0\LeisureInsure\App\controllers\UserController.js
D:\Repo\site3.0\website3.0\LeisureInsure\App\controllers\UserController.js.map
D:\Repo\site3.0\website3.0\LeisureInsure\App\DataService\Admin\LandingPageService.js
D:\Repo\site3.0\website3.0\LeisureInsure\App\DataService\Admin\LandingPageService.js.map
D:\Repo\site3.0\website3.0\LeisureInsure\App\DataService\Auth\AuthenticationService.js
D:\Repo\site3.0\website3.0\LeisureInsure\App\DataService\Auth\AuthenticationService.js.map
D:\Repo\site3.0\website3.0\LeisureInsure\App\DataService\Auth\AuthorisationService.js
D:\Repo\site3.0\website3.0\LeisureInsure\App\DataService\Auth\AuthorisationService.js.map
D:\Repo\site3.0\website3.0\LeisureInsure\App\DataService\Auth\HttpServiceInterceptor.js
D:\Repo\site3.0\website3.0\LeisureInsure\App\DataService\Auth\HttpServiceInterceptor.js.map
D:\Repo\site3.0\website3.0\LeisureInsure\App\DataService\StripeService.js
D:\Repo\site3.0\website3.0\LeisureInsure\App\DataService\StripeService.js.map
D:\Repo\site3.0\website3.0\LeisureInsure\App\DataService\CommonDataService.js
D:\Repo\site3.0\website3.0\LeisureInsure\App\DataService\CommonDataService.js.map
D:\Repo\site3.0\website3.0\LeisureInsure\App\DataService\RateUpdaterService.js
D:\Repo\site3.0\website3.0\LeisureInsure\App\DataService\RateUpdaterService.js.map
D:\Repo\site3.0\website3.0\LeisureInsure\App\DataService\PriceService.js
D:\Repo\site3.0\website3.0\LeisureInsure\App\DataService\PriceService.js.map
D:\Repo\site3.0\website3.0\LeisureInsure\App\DataService\ChargeService.js
D:\Repo\site3.0\website3.0\LeisureInsure\App\DataService\ChargeService.js.map
D:\Repo\site3.0\website3.0\LeisureInsure\App\DataService\CoverInputsService.js
D:\Repo\site3.0\website3.0\LeisureInsure\App\DataService\CoverInputsService.js.map
D:\Repo\site3.0\website3.0\LeisureInsure\App\DataService\CoverService.js
D:\Repo\site3.0\website3.0\LeisureInsure\App\DataService\CoverService.js.map
D:\Repo\site3.0\website3.0\LeisureInsure\App\DataService\CertificateService.js
D:\Repo\site3.0\website3.0\LeisureInsure\App\DataService\CertificateService.js.map
D:\Repo\site3.0\website3.0\LeisureInsure\App\DataService\Navigation\CoverNameService.js
D:\Repo\site3.0\website3.0\LeisureInsure\App\DataService\Navigation\CoverNameService.js.map
D:\Repo\site3.0\website3.0\LeisureInsure\App\DataService\Navigation\PolicyNameService.js
D:\Repo\site3.0\website3.0\LeisureInsure\App\DataService\Navigation\PolicyNameService.js.map
D:\Repo\site3.0\website3.0\LeisureInsure\App\DataService\Navigation\UrlToNavigationService.js
D:\Repo\site3.0\website3.0\LeisureInsure\App\DataService\Navigation\UrlToNavigationService.js.map
D:\Repo\site3.0\website3.0\LeisureInsure\App\DataService\LocationService.js
D:\Repo\site3.0\website3.0\LeisureInsure\App\DataService\LocationService.js.map
D:\Repo\site3.0\website3.0\LeisureInsure\App\DataService\PaymentService.js
D:\Repo\site3.0\website3.0\LeisureInsure\App\DataService\PaymentService.js.map
D:\Repo\site3.0\website3.0\LeisureInsure\App\DataService\PolicyUpdateDataService.js
D:\Repo\site3.0\website3.0\LeisureInsure\App\DataService\PolicyUpdateDataService.js.map
D:\Repo\site3.0\website3.0\LeisureInsure\App\DataService\MetadataService.js
D:\Repo\site3.0\website3.0\LeisureInsure\App\DataService\MetadataService.js.map
D:\Repo\site3.0\website3.0\LeisureInsure\App\DataService\PolicyService.js
D:\Repo\site3.0\website3.0\LeisureInsure\App\DataService\PolicyService.js.map
D:\Repo\site3.0\website3.0\LeisureInsure\App\DataService\PostCodeService.js
D:\Repo\site3.0\website3.0\LeisureInsure\App\DataService\PostCodeService.js.map
D:\Repo\site3.0\website3.0\LeisureInsure\App\DetailsPage\DetailsController.js
D:\Repo\site3.0\website3.0\LeisureInsure\App\DetailsPage\DetailsController.js.map
D:\Repo\site3.0\website3.0\LeisureInsure\App\Directives\LiDatePickerTo.js
D:\Repo\site3.0\website3.0\LeisureInsure\App\Directives\LiDatePickerTo.js.map
D:\Repo\site3.0\website3.0\LeisureInsure\App\Directives\LiDatePicker.js
D:\Repo\site3.0\website3.0\LeisureInsure\App\Directives\LiDatePicker.js.map
D:\Repo\site3.0\website3.0\LeisureInsure\App\Directives\showShortNumber.js
D:\Repo\site3.0\website3.0\LeisureInsure\App\Directives\showShortNumber.js.map
D:\Repo\site3.0\website3.0\LeisureInsure\App\Directives\repeatEnd.js
D:\Repo\site3.0\website3.0\LeisureInsure\App\Directives\repeatEnd.js.map
D:\Repo\site3.0\website3.0\LeisureInsure\App\Directives\timePicker.js
D:\Repo\site3.0\website3.0\LeisureInsure\App\Directives\timePicker.js.map
D:\Repo\site3.0\website3.0\LeisureInsure\App\Filters\NameFilter.js
D:\Repo\site3.0\website3.0\LeisureInsure\App\Filters\NameFilter.js.map
D:\Repo\site3.0\website3.0\LeisureInsure\App\Filters\SafeUrl.js
D:\Repo\site3.0\website3.0\LeisureInsure\App\Filters\SafeUrl.js.map
D:\Repo\site3.0\website3.0\LeisureInsure\App\Helper\Enums.js
D:\Repo\site3.0\website3.0\LeisureInsure\App\Helper\Enums.js.map
D:\Repo\site3.0\website3.0\LeisureInsure\App\Homepage\HomepageController.js
D:\Repo\site3.0\website3.0\LeisureInsure\App\Homepage\HomepageController.js.map
D:\Repo\site3.0\website3.0\LeisureInsure\App\Interfaces\Auth\IToken.js
D:\Repo\site3.0\website3.0\LeisureInsure\App\Interfaces\Auth\IToken.js.map
D:\Repo\site3.0\website3.0\LeisureInsure\App\Interfaces\Auth\ITokenResponse.js
D:\Repo\site3.0\website3.0\LeisureInsure\App\Interfaces\Auth\ITokenResponse.js.map
D:\Repo\site3.0\website3.0\LeisureInsure\App\Interfaces\Charges\IEndorsement.js
D:\Repo\site3.0\website3.0\LeisureInsure\App\Interfaces\Charges\IEndorsement.js.map
D:\Repo\site3.0\website3.0\LeisureInsure\App\Interfaces\IAddressView.js
D:\Repo\site3.0\website3.0\LeisureInsure\App\Interfaces\IAddressView.js.map
D:\Repo\site3.0\website3.0\LeisureInsure\App\Interfaces\IInstalments.js
D:\Repo\site3.0\website3.0\LeisureInsure\App\Interfaces\IInstalments.js.map
D:\Repo\site3.0\website3.0\LeisureInsure\App\Interfaces\QuoteEngine\IDefaultEngine.js
D:\Repo\site3.0\website3.0\LeisureInsure\App\Interfaces\QuoteEngine\IDefaultEngine.js.map
D:\Repo\site3.0\website3.0\LeisureInsure\App\Interfaces\QuoteEngine\ICoverEngine.js
D:\Repo\site3.0\website3.0\LeisureInsure\App\Interfaces\QuoteEngine\ICoverEngine.js.map
D:\Repo\site3.0\website3.0\LeisureInsure\App\Interfaces\QuoteEngine\IPolicyEngine.js
D:\Repo\site3.0\website3.0\LeisureInsure\App\Interfaces\QuoteEngine\IPolicyEngine.js.map
D:\Repo\site3.0\website3.0\LeisureInsure\App\Interfaces\QuoteEngine\IClientEngine.js
D:\Repo\site3.0\website3.0\LeisureInsure\App\Interfaces\QuoteEngine\IClientEngine.js.map
D:\Repo\site3.0\website3.0\LeisureInsure\App\Interfaces\QuoteEngine\IQuoteEngine.js
D:\Repo\site3.0\website3.0\LeisureInsure\App\Interfaces\QuoteEngine\IQuoteEngine.js.map
D:\Repo\site3.0\website3.0\LeisureInsure\App\Interfaces\IStripe.js
D:\Repo\site3.0\website3.0\LeisureInsure\App\Interfaces\IStripe.js.map
D:\Repo\site3.0\website3.0\LeisureInsure\App\Interfaces\IPolicyDocuments.js
D:\Repo\site3.0\website3.0\LeisureInsure\App\Interfaces\IPolicyDocuments.js.map
D:\Repo\site3.0\website3.0\LeisureInsure\App\Interfaces\ITable.js
D:\Repo\site3.0\website3.0\LeisureInsure\App\Interfaces\ITable.js.map
D:\Repo\site3.0\website3.0\LeisureInsure\App\Interfaces\IListItem.js
D:\Repo\site3.0\website3.0\LeisureInsure\App\Interfaces\IListItem.js.map
D:\Repo\site3.0\website3.0\LeisureInsure\App\Interfaces\IRateView.js
D:\Repo\site3.0\website3.0\LeisureInsure\App\Interfaces\IRateView.js.map
D:\Repo\site3.0\website3.0\LeisureInsure\App\Interfaces\IRateItemView.js
D:\Repo\site3.0\website3.0\LeisureInsure\App\Interfaces\IRateItemView.js.map
D:\Repo\site3.0\website3.0\LeisureInsure\App\Interfaces\ICoverView.js
D:\Repo\site3.0\website3.0\LeisureInsure\App\Interfaces\ICoverView.js.map
D:\Repo\site3.0\website3.0\LeisureInsure\App\Interfaces\IPolicyView.js
D:\Repo\site3.0\website3.0\LeisureInsure\App\Interfaces\IPolicyView.js.map
D:\Repo\site3.0\website3.0\LeisureInsure\App\Interfaces\IDates.js
D:\Repo\site3.0\website3.0\LeisureInsure\App\Interfaces\IDates.js.map
D:\Repo\site3.0\website3.0\LeisureInsure\App\Interfaces\ICoverSection.js
D:\Repo\site3.0\website3.0\LeisureInsure\App\Interfaces\ICoverSection.js.map
D:\Repo\site3.0\website3.0\LeisureInsure\App\Interfaces\IDocument.js
D:\Repo\site3.0\website3.0\LeisureInsure\App\Interfaces\IDocument.js.map
D:\Repo\site3.0\website3.0\LeisureInsure\App\Interfaces\ILocaleList.js
D:\Repo\site3.0\website3.0\LeisureInsure\App\Interfaces\ILocaleList.js.map
D:\Repo\site3.0\website3.0\LeisureInsure\App\Models\UserType.js
D:\Repo\site3.0\website3.0\LeisureInsure\App\Models\UserType.js.map
D:\Repo\site3.0\website3.0\LeisureInsure\App\Interfaces\Charges\IAnswer.js
D:\Repo\site3.0\website3.0\LeisureInsure\App\Interfaces\Charges\IAnswer.js.map
D:\Repo\site3.0\website3.0\LeisureInsure\App\Interfaces\Charges\IChargeSummary.js
D:\Repo\site3.0\website3.0\LeisureInsure\App\Interfaces\Charges\IChargeSummary.js.map
D:\Repo\site3.0\website3.0\LeisureInsure\App\Interfaces\Charges\IGlobalIrisFields.js
D:\Repo\site3.0\website3.0\LeisureInsure\App\Interfaces\Charges\IGlobalIrisFields.js.map
D:\Repo\site3.0\website3.0\LeisureInsure\App\Interfaces\Charges\IPaymentCard.js
D:\Repo\site3.0\website3.0\LeisureInsure\App\Interfaces\Charges\IPaymentCard.js.map
D:\Repo\site3.0\website3.0\LeisureInsure\App\Interfaces\Charges\IPaymentOption.js
D:\Repo\site3.0\website3.0\LeisureInsure\App\Interfaces\Charges\IPaymentOption.js.map
D:\Repo\site3.0\website3.0\LeisureInsure\App\Interfaces\Charges\IReferralItem.js
D:\Repo\site3.0\website3.0\LeisureInsure\App\Interfaces\Charges\IReferralItem.js.map
D:\Repo\site3.0\website3.0\LeisureInsure\App\Interfaces\Charges\ReferralType.js
D:\Repo\site3.0\website3.0\LeisureInsure\App\Interfaces\Charges\ReferralType.js.map
D:\Repo\site3.0\website3.0\LeisureInsure\App\Interfaces\IAddress.js
D:\Repo\site3.0\website3.0\LeisureInsure\App\Interfaces\IAddress.js.map
D:\Repo\site3.0\website3.0\LeisureInsure\App\Interfaces\IChargeLIne.js
D:\Repo\site3.0\website3.0\LeisureInsure\App\Interfaces\IChargeLIne.js.map
D:\Repo\site3.0\website3.0\LeisureInsure\App\Interfaces\IAllData.js
D:\Repo\site3.0\website3.0\LeisureInsure\App\Interfaces\IAllData.js.map
D:\Repo\site3.0\website3.0\LeisureInsure\App\Interfaces\IChargeInputs.js
D:\Repo\site3.0\website3.0\LeisureInsure\App\Interfaces\IChargeInputs.js.map
D:\Repo\site3.0\website3.0\LeisureInsure\App\Interfaces\IChargeSummaryItem.js
D:\Repo\site3.0\website3.0\LeisureInsure\App\Interfaces\IChargeSummaryItem.js.map
D:\Repo\site3.0\website3.0\LeisureInsure\App\Interfaces\IContactDetails.js
D:\Repo\site3.0\website3.0\LeisureInsure\App\Interfaces\IContactDetails.js.map
D:\Repo\site3.0\website3.0\LeisureInsure\App\Interfaces\ICover.js
D:\Repo\site3.0\website3.0\LeisureInsure\App\Interfaces\ICover.js.map
D:\Repo\site3.0\website3.0\LeisureInsure\App\Interfaces\ICoverInputs.js
D:\Repo\site3.0\website3.0\LeisureInsure\App\Interfaces\ICoverInputs.js.map
D:\Repo\site3.0\website3.0\LeisureInsure\App\Interfaces\ICustomer.js
D:\Repo\site3.0\website3.0\LeisureInsure\App\Interfaces\ICustomer.js.map
D:\Repo\site3.0\website3.0\LeisureInsure\App\Interfaces\IEntityTypes.js
D:\Repo\site3.0\website3.0\LeisureInsure\App\Interfaces\IEntityTypes.js.map
D:\Repo\site3.0\website3.0\LeisureInsure\App\Interfaces\IInputDetail.js
D:\Repo\site3.0\website3.0\LeisureInsure\App\Interfaces\IInputDetail.js.map
D:\Repo\site3.0\website3.0\LeisureInsure\App\Interfaces\IFlatInput.js
D:\Repo\site3.0\website3.0\LeisureInsure\App\Interfaces\IFlatInput.js.map
D:\Repo\site3.0\website3.0\LeisureInsure\App\Interfaces\ILocale.js
D:\Repo\site3.0\website3.0\LeisureInsure\App\Interfaces\ILocale.js.map
D:\Repo\site3.0\website3.0\LeisureInsure\App\Interfaces\INavigationObject.js
D:\Repo\site3.0\website3.0\LeisureInsure\App\Interfaces\INavigationObject.js.map
D:\Repo\site3.0\website3.0\LeisureInsure\App\Interfaces\IPolicy.js
D:\Repo\site3.0\website3.0\LeisureInsure\App\Interfaces\IPolicy.js.map
D:\Repo\site3.0\website3.0\LeisureInsure\App\Interfaces\IProductLine.js
D:\Repo\site3.0\website3.0\LeisureInsure\App\Interfaces\IProductLine.js.map
D:\Repo\site3.0\website3.0\LeisureInsure\App\Purchase\PurchaseController.js
D:\Repo\site3.0\website3.0\LeisureInsure\App\Purchase\PurchaseController.js.map
D:\Repo\site3.0\website3.0\LeisureInsure\App\NewPayment\NewPaymentController.js
D:\Repo\site3.0\website3.0\LeisureInsure\App\NewPayment\NewPaymentController.js.map
D:\Repo\site3.0\website3.0\LeisureInsure\App\Landing\LandingController.js
D:\Repo\site3.0\website3.0\LeisureInsure\App\Landing\LandingController.js.map
D:\Repo\site3.0\website3.0\LeisureInsure\App\PLInputsPage\PLInputsController.js
D:\Repo\site3.0\website3.0\LeisureInsure\App\PLInputsPage\PLInputsController.js.map
D:\Repo\site3.0\website3.0\LeisureInsure\App\Interfaces\IIrisViewModel.js
D:\Repo\site3.0\website3.0\LeisureInsure\App\Interfaces\IIrisViewModel.js.map
D:\Repo\site3.0\website3.0\LeisureInsure\App\Interfaces\IMetadata.js
D:\Repo\site3.0\website3.0\LeisureInsure\App\Interfaces\IMetadata.js.map
D:\Repo\site3.0\website3.0\LeisureInsure\App\Route.js
D:\Repo\site3.0\website3.0\LeisureInsure\App\Route.js.map
